{
    "System": "aurum, Darwin-15.6.0-x86_64-i386-64bit, Python 3.5.2",
    "Benchmark": "Euclidean distance matrix K, Python/C++/naivestdlib",
    "Theta": [
        [
            "n",
            [
                10,
                50,
                100,
                500,
                1000,
                5000
            ]
        ],
        [
            "d",
            [
                1,
                10,
                50,
                100,
                300,
                500,
                1000
            ]
        ]
    ],
    "DateTime": "2016-08-17_06-41",
    "Timings": [
        [
            2.4243487326050324e-05,
            2.5457764851240333e-05,
            2.9329111368596274e-05,
            2.9604262669362e-05,
            3.4170644121480444e-05,
            3.7868625341976556e-05,
            4.993100503886408e-05
        ],
        [
            4.084043646902376e-05,
            4.310137498058082e-05,
            4.829187260837277e-05,
            5.4615797756243936e-05,
            7.953818169461797e-05,
            0.00010430487292439712,
            0.00016585384974830415
        ],
        [
            0.00010538930135679369,
            0.00010688732423964759,
            0.00011243799305962566,
            0.00011969558186672807,
            0.0001561728571956403,
            0.00019307165873014978,
            0.00028679488705663696
        ],
        [
            0.0015341539654723274,
            0.001545592562040038,
            0.001619171212605079,
            0.0017508586977288748,
            0.002249106858510801,
            0.0027334254076310386,
            0.004000780848480581
        ],
        [
            0.007521116106997169,
            0.007638624697708363,
            0.007923383237997851,
            0.00832044751900285,
            0.010313106939877859,
            0.011839918961477146,
            0.016123074403291655
        ],
        [
            0.3247721279166645,
            0.328195736583325,
            0.3327121930000108,
            0.3382464129166654,
            0.3761137873333382,
            0.41399211837499195,
            0.5164319227500158
        ]
    ],
    "ThetaGrid": [
        [
            [
                10,
                1
            ],
            [
                10,
                10
            ],
            [
                10,
                50
            ],
            [
                10,
                100
            ],
            [
                10,
                300
            ],
            [
                10,
                500
            ],
            [
                10,
                1000
            ]
        ],
        [
            [
                50,
                1
            ],
            [
                50,
                10
            ],
            [
                50,
                50
            ],
            [
                50,
                100
            ],
            [
                50,
                300
            ],
            [
                50,
                500
            ],
            [
                50,
                1000
            ]
        ],
        [
            [
                100,
                1
            ],
            [
                100,
                10
            ],
            [
                100,
                50
            ],
            [
                100,
                100
            ],
            [
                100,
                300
            ],
            [
                100,
                500
            ],
            [
                100,
                1000
            ]
        ],
        [
            [
                500,
                1
            ],
            [
                500,
                10
            ],
            [
                500,
                50
            ],
            [
                500,
                100
            ],
            [
                500,
                300
            ],
            [
                500,
                500
            ],
            [
                500,
                1000
            ]
        ],
        [
            [
                1000,
                1
            ],
            [
                1000,
                10
            ],
            [
                1000,
                50
            ],
            [
                1000,
                100
            ],
            [
                1000,
                300
            ],
            [
                1000,
                500
            ],
            [
                1000,
                1000
            ]
        ],
        [
            [
                5000,
                1
            ],
            [
                5000,
                10
            ],
            [
                5000,
                50
            ],
            [
                5000,
                100
            ],
            [
                5000,
                300
            ],
            [
                5000,
                500
            ],
            [
                5000,
                1000
            ]
        ]
    ]
}