{
    "DateTime": "2016-08-04_15-07",
    "Benchmark": "One-norm distance matrix K, Mathematica/Mathematica",
    "System": "aurum, MacOSX-x86-64, Mathematica 10.4",
    "Theta": [
        [
            "n",
            [
                10,
                50,
                100,
                500,
                1000,
                5000
            ]
        ],
        [
            "d",
            [
                1,
                10,
                50,
                100,
                300,
                500,
                1000
            ]
        ]
    ],
    "ThetaGrid": [
        [
            [
                10,
                1
            ],
            [
                10,
                10
            ],
            [
                10,
                50
            ],
            [
                10,
                100
            ],
            [
                10,
                300
            ],
            [
                10,
                500
            ],
            [
                10,
                1000
            ]
        ],
        [
            [
                50,
                1
            ],
            [
                50,
                10
            ],
            [
                50,
                50
            ],
            [
                50,
                100
            ],
            [
                50,
                300
            ],
            [
                50,
                500
            ],
            [
                50,
                1000
            ]
        ],
        [
            [
                100,
                1
            ],
            [
                100,
                10
            ],
            [
                100,
                50
            ],
            [
                100,
                100
            ],
            [
                100,
                300
            ],
            [
                100,
                500
            ],
            [
                100,
                1000
            ]
        ],
        [
            [
                500,
                1
            ],
            [
                500,
                10
            ],
            [
                500,
                50
            ],
            [
                500,
                100
            ],
            [
                500,
                300
            ],
            [
                500,
                500
            ],
            [
                500,
                1000
            ]
        ],
        [
            [
                1000,
                1
            ],
            [
                1000,
                10
            ],
            [
                1000,
                50
            ],
            [
                1000,
                100
            ],
            [
                1000,
                300
            ],
            [
                1000,
                500
            ],
            [
                1000,
                1000
            ]
        ],
        [
            [
                5000,
                1
            ],
            [
                5000,
                10
            ],
            [
                5000,
                50
            ],
            [
                5000,
                100
            ],
            [
                5000,
                300
            ],
            [
                5000,
                500
            ],
            [
                5000,
                1000
            ]
        ]
    ],
    "Timings": [
        [
            8.48103e-5,
            6.93303e-5,
            7.98151e-5,
            9.16327e-5,
            0.000132289,
            0.00017176,
            0.000270345
        ],
        [
            7.89683e-5,
            0.000130748,
            0.000337704,
            0.000596626,
            0.00163765,
            0.00268804,
            0.00529194
        ],
        [
            0.000109444,
            0.000300726,
            0.00111156,
            0.00215714,
            0.00638304,
            0.0105725,
            0.0211712
        ],
        [
            0.00113176,
            0.00522739,
            0.0255991,
            0.0522689,
            0.158988,
            0.265049,
            0.530715
        ],
        [
            0.00856133,
            0.0241546,
            0.106152,
            0.212407,
            0.63762,
            1.06392,
            2.16803
        ],
        [
            0.123935,
            0.796874,
            2.86369,
            5.51415,
            16.4951,
            27.64,
            55.1909
        ]
    ]
}