{
    "System": "aurum, Darwin-15.5.0-x86_64-i386-64bit, Python 3.5.1",
    "ThetaGrid": [
        [
            [
                10,
                1
            ],
            [
                10,
                10
            ],
            [
                10,
                50
            ],
            [
                10,
                100
            ],
            [
                10,
                300
            ],
            [
                10,
                500
            ],
            [
                10,
                1000
            ],
            [
                10,
                10000
            ]
        ],
        [
            [
                50,
                1
            ],
            [
                50,
                10
            ],
            [
                50,
                50
            ],
            [
                50,
                100
            ],
            [
                50,
                300
            ],
            [
                50,
                500
            ],
            [
                50,
                1000
            ],
            [
                50,
                10000
            ]
        ],
        [
            [
                100,
                1
            ],
            [
                100,
                10
            ],
            [
                100,
                50
            ],
            [
                100,
                100
            ],
            [
                100,
                300
            ],
            [
                100,
                500
            ],
            [
                100,
                1000
            ],
            [
                100,
                10000
            ]
        ],
        [
            [
                500,
                1
            ],
            [
                500,
                10
            ],
            [
                500,
                50
            ],
            [
                500,
                100
            ],
            [
                500,
                300
            ],
            [
                500,
                500
            ],
            [
                500,
                1000
            ],
            [
                500,
                10000
            ]
        ],
        [
            [
                1000,
                1
            ],
            [
                1000,
                10
            ],
            [
                1000,
                50
            ],
            [
                1000,
                100
            ],
            [
                1000,
                300
            ],
            [
                1000,
                500
            ],
            [
                1000,
                1000
            ],
            [
                1000,
                10000
            ]
        ],
        [
            [
                5000,
                1
            ],
            [
                5000,
                10
            ],
            [
                5000,
                50
            ],
            [
                5000,
                100
            ],
            [
                5000,
                300
            ],
            [
                5000,
                500
            ],
            [
                5000,
                1000
            ],
            [
                5000,
                10000
            ]
        ],
        [
            [
                10000,
                1
            ],
            [
                10000,
                10
            ],
            [
                10000,
                50
            ],
            [
                10000,
                100
            ],
            [
                10000,
                300
            ],
            [
                10000,
                500
            ],
            [
                10000,
                1000
            ],
            [
                10000,
                10000
            ]
        ]
    ],
    "Benchmark": "Linear kernel vector m, Python/NumPy/einsum",
    "Timings": [
        [
            1.8573868240412075e-05,
            1.8367282957443807e-05,
            1.876129577260307e-05,
            1.900699166731516e-05,
            2.0086954186113122e-05,
            2.1307245683309147e-05,
            2.3716767294039444e-05,
            5.966886128085983e-05
        ],
        [
            1.8772143449941422e-05,
            1.88425829289931e-05,
            1.989506880738242e-05,
            2.0846007189234393e-05,
            2.5435275376266606e-05,
            2.9694808422480462e-05,
            3.982057308009393e-05,
            0.00022059957037969105
        ],
        [
            1.884043619110286e-05,
            1.9300930879205023e-05,
            2.103395548180478e-05,
            2.2993461499000617e-05,
            3.1687619892131255e-05,
            3.9281904571771456e-05,
            5.904442764727401e-05,
            0.00045108684337485965
        ],
        [
            1.958141193519101e-05,
            2.3300696124251996e-05,
            2.9931506673740346e-05,
            3.781004967875369e-05,
            7.71592915842203e-05,
            0.00011671770191498356,
            0.0002190905382066203,
            0.0024129332532603328
        ],
        [
            2.0601992079610186e-05,
            2.8037651462500725e-05,
            3.97122296529222e-05,
            5.5318814743766635e-05,
            0.0001343939726599212,
            0.0002167328758037664,
            0.0004511191080879072,
            0.004758048446207415
        ],
        [
            2.5185807782448658e-05,
            5.932821129298191e-05,
            0.00011496433286680029,
            0.00019942189867870746,
            0.000725823343786783,
            0.00123082566177683,
            0.0024324646493176583,
            0.023425021040013275
        ],
        [
            3.018574900032957e-05,
            9.787880494151958e-05,
            0.00021464746865559848,
            0.0004288530117237574,
            0.0014887448067580434,
            0.002433758596619493,
            0.004764978001575504,
            0.04690481945675294
        ]
    ],
    "Theta": [
        [
            "n",
            [
                10,
                50,
                100,
                500,
                1000,
                5000,
                10000
            ]
        ],
        [
            "d",
            [
                1,
                10,
                50,
                100,
                300,
                500,
                1000,
                10000
            ]
        ]
    ],
    "DateTime": "2016-07-04_15-20"
}
